"Primary ISBN"	"Title"	"Book Visits (BV)"	"BV with Pages Viewed"	"Non-Unique Buy Clicks"	"BV with Buy Clicks"	"Buy Link CTR"	"Pages Viewed"
"9781909188082"	"Conversations with Kenelm"	"80"	"69"	"0"	"0"	"0.0%"	"216"
"9781909188099"	"Strindberg and Autobiography"	"42"	"37"	"0"	"0"	"0.0%"	"93"
"9781909188105"	"Studies in Strindberg"	"39"	"35"	"0"	"0"	"0.0%"	"300"
"9781909188112"	"Dante and Aquinas"	"84"	"78"	"0"	"0"	"0.0%"	"368"
"9781909188174"	"Open Source, Free Software e Open Format nei processi di ricerca archeologica"	"52"	"45"	"0"	"0"	"0.0%"	"81"
"9781909188204"	"Imagining the Future City"	"44"	"42"	"0"	"0"	"0.0%"	"475"
"9781909188235"	"Reading with My Eyes Open"	"145"	"120"	"0"	"0"	"0.0%"	"657"
"9781909188266"	"Writing as Material Practice"	"162"	"155"	"0"	"0"	"0.0%"	"2,426"
"9781909188297"	"The Past in the Present"	"111"	"90"	"0"	"0"	"0.0%"	"1,134"
"9781909188327"	"Issues in Open Research Data"	"35"	"16"	"0"	"0"	"0.0%"	"54"
"9781909188358"	"The Battle for Open"	"82"	"71"	"0"	"0"	"0.0%"	"444"
"9781909188396"	"Ebooks in education"	"205"	"164"	"0"	"0"	"0.0%"	"2,593"
"9781909188433"	"Thinking Beyond Sectors for Sustainable Development"	"21"	"15"	"0"	"0"	"0.0%"	"68"
"9781909188471"	"Digital Classics Outside the Echo-Chamber"	"127"	"101"	"0"	"0"	"0.0%"	"411"
"9781909188501"	"Högskolans ansvar"	"103"	"98"	"0"	"0"	"0.0%"	"199"
"9781909188549"	"Mobile Research Methods"	"128"	"111"	"0"	"0"	"0.0%"	"889"
"9781909188587"	"The Value of the University Armed Service Units"	"42"	"39"	"0"	"0"	"0.0%"	"91"
"9781909188648"	"Garden Learning"	"30"	"28"	"0"	"0"	"0.0%"	"97"
"9781909188686"	"Learning from West African Experiences in Security Sector Governance"	"53"	"45"	"0"	"0"	"0.0%"	"271"
